Name: 	Jan 	 score: 	4
Name: 	Michiel 	 score: 	13
Name: 	Bas 	 score: 	26
Name: 	Bas 	 score: 	85
Name: 	Jeroen 	 score: 	1
Name: 	Bas 	 score: 	95
Name: 	Jeroen 	 score: 	79
Name: 	Jeroen! 	 score: 	115
Name: 	Bas 	 score: 	70
